<?xml version="1.0" encoding="UTF-8" standalone="no"?>
<!DOCTYPE svg PUBLIC "-//W3C//DTD SVG 1.1//EN" "http://www.w3.org/Graphics/SVG/1.1/DTD/svg11.dtd">
<svg width="100%" height="100%" viewBox="0 0 369 130" version="1.1" xmlns="http://www.w3.org/2000/svg" xmlns:xlink="http://www.w3.org/1999/xlink" xml:space="preserve" xmlns:serif="http://www.serif.com/" style="fill-rule:evenodd;clip-rule:evenodd;stroke-linejoin:round;stroke-miterlimit:2;">
    <g transform="matrix(1,0,0,1,-524.641,-165.418)">
        <g id="Version-4" serif:id="Version 4" transform="matrix(6.43861e-17,-1.0515,1.04395,6.39233e-17,-37.3925,210.439)">
            <g id="Organizacion" transform="matrix(2.11568e-17,0.345517,-0.345517,2.11568e-17,136.774,478.547)">
                <g transform="matrix(1.10706,0,0,1.10706,-166.402,-127.807)">
                    <g transform="matrix(1.45527,0,0,1.45527,-109.567,316.723)">
                        <path d="M335.05,154.241C333.573,152.761 333.573,150.367 335.05,148.888C336.526,147.409 338.925,147.409 340.401,148.888C341.88,150.367 341.88,152.761 340.401,154.241C338.925,155.716 336.526,155.716 335.05,154.241ZM360.966,128.329C362.44,129.806 362.44,132.202 360.966,133.679C359.485,135.158 357.087,135.158 355.61,133.679C354.132,132.202 354.132,129.806 355.61,128.329C357.087,126.85 359.485,126.85 360.966,128.329ZM358.688,140.094C360.882,139.996 363.046,139.112 364.72,137.438C368.274,133.883 368.274,128.123 364.72,124.57C361.169,121.017 355.407,121.017 351.853,124.57C350.044,126.379 349.157,128.762 349.19,131.134L337.858,142.466C335.485,142.434 333.104,143.32 331.294,145.128C327.741,148.683 327.741,154.444 331.294,157.997C334.849,161.552 340.61,161.552 344.159,157.997C345.835,156.322 346.718,154.159 346.815,151.969L358.688,140.094Z" style="fill:rgb(242,232,210);fill-rule:nonzero;"/>
                    </g>
                    <g transform="matrix(-2.67329e-16,-1.45527,1.45527,-2.67329e-16,221.144,1028.65)">
                        <path d="M335.05,154.241C333.573,152.761 333.573,150.367 335.05,148.888C336.526,147.409 338.925,147.409 340.401,148.888C341.88,150.367 341.88,152.761 340.401,154.241C338.925,155.716 336.526,155.716 335.05,154.241ZM360.966,128.329C362.44,129.806 362.44,132.202 360.966,133.679C359.485,135.158 357.087,135.158 355.61,133.679C354.132,132.202 354.132,129.806 355.61,128.329C357.087,126.85 359.485,126.85 360.966,128.329ZM358.688,140.094C360.882,139.996 363.046,139.112 364.72,137.438C368.274,133.883 368.274,128.123 364.72,124.57C361.169,121.017 355.407,121.017 351.853,124.57C350.044,126.379 349.157,128.762 349.19,131.134L337.858,142.466C335.485,142.434 333.104,143.32 331.294,145.128C327.741,148.683 327.741,154.444 331.294,157.997C334.849,161.552 340.61,161.552 344.159,157.997C345.835,156.322 346.718,154.159 346.815,151.969L358.688,140.094Z" style="fill:rgb(242,232,210);fill-rule:nonzero;"/>
                    </g>
                </g>
                <g transform="matrix(1.10706,0,0,1.10706,-34.4022,-127.807)">
                    <g transform="matrix(1.45527,0,0,1.45527,-109.567,316.723)">
                        <path d="M335.05,154.241C333.573,152.761 333.573,150.367 335.05,148.888C336.526,147.409 338.925,147.409 340.401,148.888C341.88,150.367 341.88,152.761 340.401,154.241C338.925,155.716 336.526,155.716 335.05,154.241ZM360.966,128.329C362.44,129.806 362.44,132.202 360.966,133.679C359.485,135.158 357.087,135.158 355.61,133.679C354.132,132.202 354.132,129.806 355.61,128.329C357.087,126.85 359.485,126.85 360.966,128.329ZM358.688,140.094C360.882,139.996 363.046,139.112 364.72,137.438C368.274,133.883 368.274,128.123 364.72,124.57C361.169,121.017 355.407,121.017 351.853,124.57C350.044,126.379 349.157,128.762 349.19,131.134L337.858,142.466C335.485,142.434 333.104,143.32 331.294,145.128C327.741,148.683 327.741,154.444 331.294,157.997C334.849,161.552 340.61,161.552 344.159,157.997C345.835,156.322 346.718,154.159 346.815,151.969L358.688,140.094Z" style="fill:rgb(242,232,210);fill-rule:nonzero;"/>
                    </g>
                    <g transform="matrix(-2.67329e-16,-1.45527,1.45527,-2.67329e-16,221.144,1028.65)">
                        <path d="M335.05,154.241C333.573,152.761 333.573,150.367 335.05,148.888C336.526,147.409 338.925,147.409 340.401,148.888C341.88,150.367 341.88,152.761 340.401,154.241C338.925,155.716 336.526,155.716 335.05,154.241ZM360.966,128.329C362.44,129.806 362.44,132.202 360.966,133.679C359.485,135.158 357.087,135.158 355.61,133.679C354.132,132.202 354.132,129.806 355.61,128.329C357.087,126.85 359.485,126.85 360.966,128.329ZM358.688,140.094C360.882,139.996 363.046,139.112 364.72,137.438C368.274,133.883 368.274,128.123 364.72,124.57C361.169,121.017 355.407,121.017 351.853,124.57C350.044,126.379 349.157,128.762 349.19,131.134L337.858,142.466C335.485,142.434 333.104,143.32 331.294,145.128C327.741,148.683 327.741,154.444 331.294,157.997C334.849,161.552 340.61,161.552 344.159,157.997C345.835,156.322 346.718,154.159 346.815,151.969L358.688,140.094Z" style="fill:rgb(242,232,210);fill-rule:nonzero;"/>
                    </g>
                </g>
                <g transform="matrix(1.10706,0,0,1.10706,-100.535,-55.8074)">
                    <g transform="matrix(1.45527,0,0,1.45527,-109.567,316.723)">
                        <path d="M335.05,154.241C333.573,152.761 333.573,150.367 335.05,148.888C336.526,147.409 338.925,147.409 340.401,148.888C341.88,150.367 341.88,152.761 340.401,154.241C338.925,155.716 336.526,155.716 335.05,154.241ZM360.966,128.329C362.44,129.806 362.44,132.202 360.966,133.679C359.485,135.158 357.087,135.158 355.61,133.679C354.132,132.202 354.132,129.806 355.61,128.329C357.087,126.85 359.485,126.85 360.966,128.329ZM358.688,140.094C360.882,139.996 363.046,139.112 364.72,137.438C368.274,133.883 368.274,128.123 364.72,124.57C361.169,121.017 355.407,121.017 351.853,124.57C350.044,126.379 349.157,128.762 349.19,131.134L337.858,142.466C335.485,142.434 333.104,143.32 331.294,145.128C327.741,148.683 327.741,154.444 331.294,157.997C334.849,161.552 340.61,161.552 344.159,157.997C345.835,156.322 346.718,154.159 346.815,151.969L358.688,140.094Z" style="fill:rgb(242,232,210);fill-rule:nonzero;"/>
                    </g>
                    <g transform="matrix(-2.67329e-16,-1.45527,1.45527,-2.67329e-16,221.144,1028.65)">
                        <path d="M335.05,154.241C333.573,152.761 333.573,150.367 335.05,148.888C336.526,147.409 338.925,147.409 340.401,148.888C341.88,150.367 341.88,152.761 340.401,154.241C338.925,155.716 336.526,155.716 335.05,154.241ZM360.966,128.329C362.44,129.806 362.44,132.202 360.966,133.679C359.485,135.158 357.087,135.158 355.61,133.679C354.132,132.202 354.132,129.806 355.61,128.329C357.087,126.85 359.485,126.85 360.966,128.329ZM358.688,140.094C360.882,139.996 363.046,139.112 364.72,137.438C368.274,133.883 368.274,128.123 364.72,124.57C361.169,121.017 355.407,121.017 351.853,124.57C350.044,126.379 349.157,128.762 349.19,131.134L337.858,142.466C335.485,142.434 333.104,143.32 331.294,145.128C327.741,148.683 327.741,154.444 331.294,157.997C334.849,161.552 340.61,161.552 344.159,157.997C345.835,156.322 346.718,154.159 346.815,151.969L358.688,140.094Z" style="fill:rgb(242,232,210);fill-rule:nonzero;"/>
                    </g>
                </g>
                <g transform="matrix(1.10706,0,0,1.10706,-232.402,-55.8883)">
                    <g transform="matrix(1.45527,0,0,1.45527,-109.567,316.723)">
                        <path d="M335.05,154.241C333.573,152.761 333.573,150.367 335.05,148.888C336.526,147.409 338.925,147.409 340.401,148.888C341.88,150.367 341.88,152.761 340.401,154.241C338.925,155.716 336.526,155.716 335.05,154.241ZM360.966,128.329C362.44,129.806 362.44,132.202 360.966,133.679C359.485,135.158 357.087,135.158 355.61,133.679C354.132,132.202 354.132,129.806 355.61,128.329C357.087,126.85 359.485,126.85 360.966,128.329ZM358.688,140.094C360.882,139.996 363.046,139.112 364.72,137.438C368.274,133.883 368.274,128.123 364.72,124.57C361.169,121.017 355.407,121.017 351.853,124.57C350.044,126.379 349.157,128.762 349.19,131.134L337.858,142.466C335.485,142.434 333.104,143.32 331.294,145.128C327.741,148.683 327.741,154.444 331.294,157.997C334.849,161.552 340.61,161.552 344.159,157.997C345.835,156.322 346.718,154.159 346.815,151.969L358.688,140.094Z" style="fill:rgb(242,232,210);fill-rule:nonzero;"/>
                    </g>
                    <g transform="matrix(-2.67329e-16,-1.45527,1.45527,-2.67329e-16,221.144,1028.65)">
                        <path d="M335.05,154.241C333.573,152.761 333.573,150.367 335.05,148.888C336.526,147.409 338.925,147.409 340.401,148.888C341.88,150.367 341.88,152.761 340.401,154.241C338.925,155.716 336.526,155.716 335.05,154.241ZM360.966,128.329C362.44,129.806 362.44,132.202 360.966,133.679C359.485,135.158 357.087,135.158 355.61,133.679C354.132,132.202 354.132,129.806 355.61,128.329C357.087,126.85 359.485,126.85 360.966,128.329ZM358.688,140.094C360.882,139.996 363.046,139.112 364.72,137.438C368.274,133.883 368.274,128.123 364.72,124.57C361.169,121.017 355.407,121.017 351.853,124.57C350.044,126.379 349.157,128.762 349.19,131.134L337.858,142.466C335.485,142.434 333.104,143.32 331.294,145.128C327.741,148.683 327.741,154.444 331.294,157.997C334.849,161.552 340.61,161.552 344.159,157.997C345.835,156.322 346.718,154.159 346.815,151.969L358.688,140.094Z" style="fill:rgb(242,232,210);fill-rule:nonzero;"/>
                    </g>
                </g>
                <g transform="matrix(1.10706,0,0,1.10706,32.5979,-55.8074)">
                    <g transform="matrix(1.45527,0,0,1.45527,-109.567,316.723)">
                        <path d="M335.05,154.241C333.573,152.761 333.573,150.367 335.05,148.888C336.526,147.409 338.925,147.409 340.401,148.888C341.88,150.367 341.88,152.761 340.401,154.241C338.925,155.716 336.526,155.716 335.05,154.241ZM360.966,128.329C362.44,129.806 362.44,132.202 360.966,133.679C359.485,135.158 357.087,135.158 355.61,133.679C354.132,132.202 354.132,129.806 355.61,128.329C357.087,126.85 359.485,126.85 360.966,128.329ZM358.688,140.094C360.882,139.996 363.046,139.112 364.72,137.438C368.274,133.883 368.274,128.123 364.72,124.57C361.169,121.017 355.407,121.017 351.853,124.57C350.044,126.379 349.157,128.762 349.19,131.134L337.858,142.466C335.485,142.434 333.104,143.32 331.294,145.128C327.741,148.683 327.741,154.444 331.294,157.997C334.849,161.552 340.61,161.552 344.159,157.997C345.835,156.322 346.718,154.159 346.815,151.969L358.688,140.094Z" style="fill:rgb(242,232,210);fill-rule:nonzero;"/>
                    </g>
                    <g transform="matrix(-2.67329e-16,-1.45527,1.45527,-2.67329e-16,221.144,1028.65)">
                        <path d="M335.05,154.241C333.573,152.761 333.573,150.367 335.05,148.888C336.526,147.409 338.925,147.409 340.401,148.888C341.88,150.367 341.88,152.761 340.401,154.241C338.925,155.716 336.526,155.716 335.05,154.241ZM360.966,128.329C362.44,129.806 362.44,132.202 360.966,133.679C359.485,135.158 357.087,135.158 355.61,133.679C354.132,132.202 354.132,129.806 355.61,128.329C357.087,126.85 359.485,126.85 360.966,128.329ZM358.688,140.094C360.882,139.996 363.046,139.112 364.72,137.438C368.274,133.883 368.274,128.123 364.72,124.57C361.169,121.017 355.407,121.017 351.853,124.57C350.044,126.379 349.157,128.762 349.19,131.134L337.858,142.466C335.485,142.434 333.104,143.32 331.294,145.128C327.741,148.683 327.741,154.444 331.294,157.997C334.849,161.552 340.61,161.552 344.159,157.997C345.835,156.322 346.718,154.159 346.815,151.969L358.688,140.094Z" style="fill:rgb(242,232,210);fill-rule:nonzero;"/>
                    </g>
                </g>
                <g transform="matrix(1.10706,0,0,1.10706,-166.402,17.5303)">
                    <g transform="matrix(1.45527,0,0,1.45527,-109.567,316.723)">
                        <path d="M335.05,154.241C333.573,152.761 333.573,150.367 335.05,148.888C336.526,147.409 338.925,147.409 340.401,148.888C341.88,150.367 341.88,152.761 340.401,154.241C338.925,155.716 336.526,155.716 335.05,154.241ZM360.966,128.329C362.44,129.806 362.44,132.202 360.966,133.679C359.485,135.158 357.087,135.158 355.61,133.679C354.132,132.202 354.132,129.806 355.61,128.329C357.087,126.85 359.485,126.85 360.966,128.329ZM358.688,140.094C360.882,139.996 363.046,139.112 364.72,137.438C368.274,133.883 368.274,128.123 364.72,124.57C361.169,121.017 355.407,121.017 351.853,124.57C350.044,126.379 349.157,128.762 349.19,131.134L337.858,142.466C335.485,142.434 333.104,143.32 331.294,145.128C327.741,148.683 327.741,154.444 331.294,157.997C334.849,161.552 340.61,161.552 344.159,157.997C345.835,156.322 346.718,154.159 346.815,151.969L358.688,140.094Z" style="fill:rgb(242,232,210);fill-rule:nonzero;"/>
                    </g>
                    <g transform="matrix(-2.67329e-16,-1.45527,1.45527,-2.67329e-16,221.144,1028.65)">
                        <path d="M335.05,154.241C333.573,152.761 333.573,150.367 335.05,148.888C336.526,147.409 338.925,147.409 340.401,148.888C341.88,150.367 341.88,152.761 340.401,154.241C338.925,155.716 336.526,155.716 335.05,154.241ZM360.966,128.329C362.44,129.806 362.44,132.202 360.966,133.679C359.485,135.158 357.087,135.158 355.61,133.679C354.132,132.202 354.132,129.806 355.61,128.329C357.087,126.85 359.485,126.85 360.966,128.329ZM358.688,140.094C360.882,139.996 363.046,139.112 364.72,137.438C368.274,133.883 368.274,128.123 364.72,124.57C361.169,121.017 355.407,121.017 351.853,124.57C350.044,126.379 349.157,128.762 349.19,131.134L337.858,142.466C335.485,142.434 333.104,143.32 331.294,145.128C327.741,148.683 327.741,154.444 331.294,157.997C334.849,161.552 340.61,161.552 344.159,157.997C345.835,156.322 346.718,154.159 346.815,151.969L358.688,140.094Z" style="fill:rgb(242,232,210);fill-rule:nonzero;"/>
                    </g>
                </g>
                <g transform="matrix(1.10706,0,0,1.10706,-34.4021,17.5303)">
                    <g transform="matrix(1.45527,0,0,1.45527,-109.567,316.723)">
                        <path d="M335.05,154.241C333.573,152.761 333.573,150.367 335.05,148.888C336.526,147.409 338.925,147.409 340.401,148.888C341.88,150.367 341.88,152.761 340.401,154.241C338.925,155.716 336.526,155.716 335.05,154.241ZM360.966,128.329C362.44,129.806 362.44,132.202 360.966,133.679C359.485,135.158 357.087,135.158 355.61,133.679C354.132,132.202 354.132,129.806 355.61,128.329C357.087,126.85 359.485,126.85 360.966,128.329ZM358.688,140.094C360.882,139.996 363.046,139.112 364.72,137.438C368.274,133.883 368.274,128.123 364.72,124.57C361.169,121.017 355.407,121.017 351.853,124.57C350.044,126.379 349.157,128.762 349.19,131.134L337.858,142.466C335.485,142.434 333.104,143.32 331.294,145.128C327.741,148.683 327.741,154.444 331.294,157.997C334.849,161.552 340.61,161.552 344.159,157.997C345.835,156.322 346.718,154.159 346.815,151.969L358.688,140.094Z" style="fill:rgb(242,232,210);fill-rule:nonzero;"/>
                    </g>
                    <g transform="matrix(-2.67329e-16,-1.45527,1.45527,-2.67329e-16,221.144,1028.65)">
                        <path d="M335.05,154.241C333.573,152.761 333.573,150.367 335.05,148.888C336.526,147.409 338.925,147.409 340.401,148.888C341.88,150.367 341.88,152.761 340.401,154.241C338.925,155.716 336.526,155.716 335.05,154.241ZM360.966,128.329C362.44,129.806 362.44,132.202 360.966,133.679C359.485,135.158 357.087,135.158 355.61,133.679C354.132,132.202 354.132,129.806 355.61,128.329C357.087,126.85 359.485,126.85 360.966,128.329ZM358.688,140.094C360.882,139.996 363.046,139.112 364.72,137.438C368.274,133.883 368.274,128.123 364.72,124.57C361.169,121.017 355.407,121.017 351.853,124.57C350.044,126.379 349.157,128.762 349.19,131.134L337.858,142.466C335.485,142.434 333.104,143.32 331.294,145.128C327.741,148.683 327.741,154.444 331.294,157.997C334.849,161.552 340.61,161.552 344.159,157.997C345.835,156.322 346.718,154.159 346.815,151.969L358.688,140.094Z" style="fill:rgb(242,232,210);fill-rule:nonzero;"/>
                    </g>
                </g>
                <g transform="matrix(1.10706,0,0,1.10706,-100.535,-200.47)">
                    <g transform="matrix(1.45527,0,0,1.45527,-109.567,316.723)">
                        <path d="M335.05,154.241C333.573,152.761 333.573,150.367 335.05,148.888C336.526,147.409 338.925,147.409 340.401,148.888C341.88,150.367 341.88,152.761 340.401,154.241C338.925,155.716 336.526,155.716 335.05,154.241ZM360.966,128.329C362.44,129.806 362.44,132.202 360.966,133.679C359.485,135.158 357.087,135.158 355.61,133.679C354.132,132.202 354.132,129.806 355.61,128.329C357.087,126.85 359.485,126.85 360.966,128.329ZM358.688,140.094C360.882,139.996 363.046,139.112 364.72,137.438C368.274,133.883 368.274,128.123 364.72,124.57C361.169,121.017 355.407,121.017 351.853,124.57C350.044,126.379 349.157,128.762 349.19,131.134L337.858,142.466C335.485,142.434 333.104,143.32 331.294,145.128C327.741,148.683 327.741,154.444 331.294,157.997C334.849,161.552 340.61,161.552 344.159,157.997C345.835,156.322 346.718,154.159 346.815,151.969L358.688,140.094Z" style="fill:rgb(242,232,210);fill-rule:nonzero;"/>
                    </g>
                    <g transform="matrix(-2.67329e-16,-1.45527,1.45527,-2.67329e-16,221.144,1028.65)">
                        <path d="M335.05,154.241C333.573,152.761 333.573,150.367 335.05,148.888C336.526,147.409 338.925,147.409 340.401,148.888C341.88,150.367 341.88,152.761 340.401,154.241C338.925,155.716 336.526,155.716 335.05,154.241ZM360.966,128.329C362.44,129.806 362.44,132.202 360.966,133.679C359.485,135.158 357.087,135.158 355.61,133.679C354.132,132.202 354.132,129.806 355.61,128.329C357.087,126.85 359.485,126.85 360.966,128.329ZM358.688,140.094C360.882,139.996 363.046,139.112 364.72,137.438C368.274,133.883 368.274,128.123 364.72,124.57C361.169,121.017 355.407,121.017 351.853,124.57C350.044,126.379 349.157,128.762 349.19,131.134L337.858,142.466C335.485,142.434 333.104,143.32 331.294,145.128C327.741,148.683 327.741,154.444 331.294,157.997C334.849,161.552 340.61,161.552 344.159,157.997C345.835,156.322 346.718,154.159 346.815,151.969L358.688,140.094Z" style="fill:rgb(242,232,210);fill-rule:nonzero;"/>
                    </g>
                </g>
                <g transform="matrix(1.10706,0,0,1.10706,-166.402,-272.202)">
                    <g transform="matrix(1.45527,0,0,1.45527,-109.567,316.723)">
                        <path d="M335.05,154.241C333.573,152.761 333.573,150.367 335.05,148.888C336.526,147.409 338.925,147.409 340.401,148.888C341.88,150.367 341.88,152.761 340.401,154.241C338.925,155.716 336.526,155.716 335.05,154.241ZM360.966,128.329C362.44,129.806 362.44,132.202 360.966,133.679C359.485,135.158 357.087,135.158 355.61,133.679C354.132,132.202 354.132,129.806 355.61,128.329C357.087,126.85 359.485,126.85 360.966,128.329ZM358.688,140.094C360.882,139.996 363.046,139.112 364.72,137.438C368.274,133.883 368.274,128.123 364.72,124.57C361.169,121.017 355.407,121.017 351.853,124.57C350.044,126.379 349.157,128.762 349.19,131.134L337.858,142.466C335.485,142.434 333.104,143.32 331.294,145.128C327.741,148.683 327.741,154.444 331.294,157.997C334.849,161.552 340.61,161.552 344.159,157.997C345.835,156.322 346.718,154.159 346.815,151.969L358.688,140.094Z" style="fill:rgb(242,232,210);fill-rule:nonzero;"/>
                    </g>
                    <g transform="matrix(-2.67329e-16,-1.45527,1.45527,-2.67329e-16,221.144,1028.65)">
                        <path d="M335.05,154.241C333.573,152.761 333.573,150.367 335.05,148.888C336.526,147.409 338.925,147.409 340.401,148.888C341.88,150.367 341.88,152.761 340.401,154.241C338.925,155.716 336.526,155.716 335.05,154.241ZM360.966,128.329C362.44,129.806 362.44,132.202 360.966,133.679C359.485,135.158 357.087,135.158 355.61,133.679C354.132,132.202 354.132,129.806 355.61,128.329C357.087,126.85 359.485,126.85 360.966,128.329ZM358.688,140.094C360.882,139.996 363.046,139.112 364.72,137.438C368.274,133.883 368.274,128.123 364.72,124.57C361.169,121.017 355.407,121.017 351.853,124.57C350.044,126.379 349.157,128.762 349.19,131.134L337.858,142.466C335.485,142.434 333.104,143.32 331.294,145.128C327.741,148.683 327.741,154.444 331.294,157.997C334.849,161.552 340.61,161.552 344.159,157.997C345.835,156.322 346.718,154.159 346.815,151.969L358.688,140.094Z" style="fill:rgb(242,232,210);fill-rule:nonzero;"/>
                    </g>
                </g>
                <g transform="matrix(1.10706,0,0,1.10706,-232.402,-200.551)">
                    <g transform="matrix(1.45527,0,0,1.45527,-109.567,316.723)">
                        <path d="M335.05,154.241C333.573,152.761 333.573,150.367 335.05,148.888C336.526,147.409 338.925,147.409 340.401,148.888C341.88,150.367 341.88,152.761 340.401,154.241C338.925,155.716 336.526,155.716 335.05,154.241ZM360.966,128.329C362.44,129.806 362.44,132.202 360.966,133.679C359.485,135.158 357.087,135.158 355.61,133.679C354.132,132.202 354.132,129.806 355.61,128.329C357.087,126.85 359.485,126.85 360.966,128.329ZM358.688,140.094C360.882,139.996 363.046,139.112 364.72,137.438C368.274,133.883 368.274,128.123 364.72,124.57C361.169,121.017 355.407,121.017 351.853,124.57C350.044,126.379 349.157,128.762 349.19,131.134L337.858,142.466C335.485,142.434 333.104,143.32 331.294,145.128C327.741,148.683 327.741,154.444 331.294,157.997C334.849,161.552 340.61,161.552 344.159,157.997C345.835,156.322 346.718,154.159 346.815,151.969L358.688,140.094Z" style="fill:rgb(242,232,210);fill-rule:nonzero;"/>
                    </g>
                    <g transform="matrix(-2.67329e-16,-1.45527,1.45527,-2.67329e-16,221.144,1028.65)">
                        <path d="M335.05,154.241C333.573,152.761 333.573,150.367 335.05,148.888C336.526,147.409 338.925,147.409 340.401,148.888C341.88,150.367 341.88,152.761 340.401,154.241C338.925,155.716 336.526,155.716 335.05,154.241ZM360.966,128.329C362.44,129.806 362.44,132.202 360.966,133.679C359.485,135.158 357.087,135.158 355.61,133.679C354.132,132.202 354.132,129.806 355.61,128.329C357.087,126.85 359.485,126.85 360.966,128.329ZM358.688,140.094C360.882,139.996 363.046,139.112 364.72,137.438C368.274,133.883 368.274,128.123 364.72,124.57C361.169,121.017 355.407,121.017 351.853,124.57C350.044,126.379 349.157,128.762 349.19,131.134L337.858,142.466C335.485,142.434 333.104,143.32 331.294,145.128C327.741,148.683 327.741,154.444 331.294,157.997C334.849,161.552 340.61,161.552 344.159,157.997C345.835,156.322 346.718,154.159 346.815,151.969L358.688,140.094Z" style="fill:rgb(242,232,210);fill-rule:nonzero;"/>
                    </g>
                </g>
                <g transform="matrix(1.10706,0,0,1.10706,-34.4021,-272.202)">
                    <g transform="matrix(1.45527,0,0,1.45527,-109.567,316.723)">
                        <path d="M335.05,154.241C333.573,152.761 333.573,150.367 335.05,148.888C336.526,147.409 338.925,147.409 340.401,148.888C341.88,150.367 341.88,152.761 340.401,154.241C338.925,155.716 336.526,155.716 335.05,154.241ZM360.966,128.329C362.44,129.806 362.44,132.202 360.966,133.679C359.485,135.158 357.087,135.158 355.61,133.679C354.132,132.202 354.132,129.806 355.61,128.329C357.087,126.85 359.485,126.85 360.966,128.329ZM358.688,140.094C360.882,139.996 363.046,139.112 364.72,137.438C368.274,133.883 368.274,128.123 364.72,124.57C361.169,121.017 355.407,121.017 351.853,124.57C350.044,126.379 349.157,128.762 349.19,131.134L337.858,142.466C335.485,142.434 333.104,143.32 331.294,145.128C327.741,148.683 327.741,154.444 331.294,157.997C334.849,161.552 340.61,161.552 344.159,157.997C345.835,156.322 346.718,154.159 346.815,151.969L358.688,140.094Z" style="fill:rgb(242,232,210);fill-rule:nonzero;"/>
                    </g>
                    <g transform="matrix(-2.67329e-16,-1.45527,1.45527,-2.67329e-16,221.144,1028.65)">
                        <path d="M335.05,154.241C333.573,152.761 333.573,150.367 335.05,148.888C336.526,147.409 338.925,147.409 340.401,148.888C341.88,150.367 341.88,152.761 340.401,154.241C338.925,155.716 336.526,155.716 335.05,154.241ZM360.966,128.329C362.44,129.806 362.44,132.202 360.966,133.679C359.485,135.158 357.087,135.158 355.61,133.679C354.132,132.202 354.132,129.806 355.61,128.329C357.087,126.85 359.485,126.85 360.966,128.329ZM358.688,140.094C360.882,139.996 363.046,139.112 364.72,137.438C368.274,133.883 368.274,128.123 364.72,124.57C361.169,121.017 355.407,121.017 351.853,124.57C350.044,126.379 349.157,128.762 349.19,131.134L337.858,142.466C335.485,142.434 333.104,143.32 331.294,145.128C327.741,148.683 327.741,154.444 331.294,157.997C334.849,161.552 340.61,161.552 344.159,157.997C345.835,156.322 346.718,154.159 346.815,151.969L358.688,140.094Z" style="fill:rgb(242,232,210);fill-rule:nonzero;"/>
                    </g>
                </g>
                <g transform="matrix(1.10706,0,0,1.10706,32.5978,-200.47)">
                    <g transform="matrix(1.45527,0,0,1.45527,-109.567,316.723)">
                        <path d="M335.05,154.241C333.573,152.761 333.573,150.367 335.05,148.888C336.526,147.409 338.925,147.409 340.401,148.888C341.88,150.367 341.88,152.761 340.401,154.241C338.925,155.716 336.526,155.716 335.05,154.241ZM360.966,128.329C362.44,129.806 362.44,132.202 360.966,133.679C359.485,135.158 357.087,135.158 355.61,133.679C354.132,132.202 354.132,129.806 355.61,128.329C357.087,126.85 359.485,126.85 360.966,128.329ZM358.688,140.094C360.882,139.996 363.046,139.112 364.72,137.438C368.274,133.883 368.274,128.123 364.72,124.57C361.169,121.017 355.407,121.017 351.853,124.57C350.044,126.379 349.157,128.762 349.19,131.134L337.858,142.466C335.485,142.434 333.104,143.32 331.294,145.128C327.741,148.683 327.741,154.444 331.294,157.997C334.849,161.552 340.61,161.552 344.159,157.997C345.835,156.322 346.718,154.159 346.815,151.969L358.688,140.094Z" style="fill:rgb(242,232,210);fill-rule:nonzero;"/>
                    </g>
                    <g transform="matrix(-2.67329e-16,-1.45527,1.45527,-2.67329e-16,221.144,1028.65)">
                        <path d="M335.05,154.241C333.573,152.761 333.573,150.367 335.05,148.888C336.526,147.409 338.925,147.409 340.401,148.888C341.88,150.367 341.88,152.761 340.401,154.241C338.925,155.716 336.526,155.716 335.05,154.241ZM360.966,128.329C362.44,129.806 362.44,132.202 360.966,133.679C359.485,135.158 357.087,135.158 355.61,133.679C354.132,132.202 354.132,129.806 355.61,128.329C357.087,126.85 359.485,126.85 360.966,128.329ZM358.688,140.094C360.882,139.996 363.046,139.112 364.72,137.438C368.274,133.883 368.274,128.123 364.72,124.57C361.169,121.017 355.407,121.017 351.853,124.57C350.044,126.379 349.157,128.762 349.19,131.134L337.858,142.466C335.485,142.434 333.104,143.32 331.294,145.128C327.741,148.683 327.741,154.444 331.294,157.997C334.849,161.552 340.61,161.552 344.159,157.997C345.835,156.322 346.718,154.159 346.815,151.969L358.688,140.094Z" style="fill:rgb(242,232,210);fill-rule:nonzero;"/>
                    </g>
                </g>
            </g>
            <g id="Destino" transform="matrix(2.11568e-17,0.345517,-0.345517,2.11568e-17,136.774,478.547)">
                <g transform="matrix(1.10706,0,0,1.10706,-100.535,-127.807)">
                    <g transform="matrix(1.45527,0,0,1.45527,-109.567,316.723)">
                        <path d="M335.05,154.241C333.573,152.761 333.573,150.367 335.05,148.888C336.526,147.409 338.925,147.409 340.401,148.888C341.88,150.367 341.88,152.761 340.401,154.241C338.925,155.716 336.526,155.716 335.05,154.241ZM360.966,128.329C362.44,129.806 362.44,132.202 360.966,133.679C359.485,135.158 357.087,135.158 355.61,133.679C354.132,132.202 354.132,129.806 355.61,128.329C357.087,126.85 359.485,126.85 360.966,128.329ZM358.688,140.094C360.882,139.996 363.046,139.112 364.72,137.438C368.274,133.883 368.274,128.123 364.72,124.57C361.169,121.017 355.407,121.017 351.853,124.57C350.044,126.379 349.157,128.762 349.19,131.134L337.858,142.466C335.485,142.434 333.104,143.32 331.294,145.128C327.741,148.683 327.741,154.444 331.294,157.997C334.849,161.552 340.61,161.552 344.159,157.997C345.835,156.322 346.718,154.159 346.815,151.969L358.688,140.094Z" style="fill:rgb(51,102,69);fill-rule:nonzero;"/>
                    </g>
                    <g transform="matrix(-2.67329e-16,-1.45527,1.45527,-2.67329e-16,221.144,1028.65)">
                        <path d="M335.05,154.241C333.573,152.761 333.573,150.367 335.05,148.888C336.526,147.409 338.925,147.409 340.401,148.888C341.88,150.367 341.88,152.761 340.401,154.241C338.925,155.716 336.526,155.716 335.05,154.241ZM360.966,128.329C362.44,129.806 362.44,132.202 360.966,133.679C359.485,135.158 357.087,135.158 355.61,133.679C354.132,132.202 354.132,129.806 355.61,128.329C357.087,126.85 359.485,126.85 360.966,128.329ZM358.688,140.094C360.882,139.996 363.046,139.112 364.72,137.438C368.274,133.883 368.274,128.123 364.72,124.57C361.169,121.017 355.407,121.017 351.853,124.57C350.044,126.379 349.157,128.762 349.19,131.134L337.858,142.466C335.485,142.434 333.104,143.32 331.294,145.128C327.741,148.683 327.741,154.444 331.294,157.997C334.849,161.552 340.61,161.552 344.159,157.997C345.835,156.322 346.718,154.159 346.815,151.969L358.688,140.094Z" style="fill:rgb(51,102,69);fill-rule:nonzero;"/>
                    </g>
                </g>
                <g transform="matrix(1.10706,0,0,1.10706,-232.402,-127.888)">
                    <g transform="matrix(1.45527,0,0,1.45527,-109.567,316.723)">
                        <path d="M335.05,154.241C333.573,152.761 333.573,150.367 335.05,148.888C336.526,147.409 338.925,147.409 340.401,148.888C341.88,150.367 341.88,152.761 340.401,154.241C338.925,155.716 336.526,155.716 335.05,154.241ZM360.966,128.329C362.44,129.806 362.44,132.202 360.966,133.679C359.485,135.158 357.087,135.158 355.61,133.679C354.132,132.202 354.132,129.806 355.61,128.329C357.087,126.85 359.485,126.85 360.966,128.329ZM358.688,140.094C360.882,139.996 363.046,139.112 364.72,137.438C368.274,133.883 368.274,128.123 364.72,124.57C361.169,121.017 355.407,121.017 351.853,124.57C350.044,126.379 349.157,128.762 349.19,131.134L337.858,142.466C335.485,142.434 333.104,143.32 331.294,145.128C327.741,148.683 327.741,154.444 331.294,157.997C334.849,161.552 340.61,161.552 344.159,157.997C345.835,156.322 346.718,154.159 346.815,151.969L358.688,140.094Z" style="fill:rgb(51,102,69);fill-rule:nonzero;"/>
                    </g>
                    <g transform="matrix(-2.67329e-16,-1.45527,1.45527,-2.67329e-16,221.144,1028.65)">
                        <path d="M335.05,154.241C333.573,152.761 333.573,150.367 335.05,148.888C336.526,147.409 338.925,147.409 340.401,148.888C341.88,150.367 341.88,152.761 340.401,154.241C338.925,155.716 336.526,155.716 335.05,154.241ZM360.966,128.329C362.44,129.806 362.44,132.202 360.966,133.679C359.485,135.158 357.087,135.158 355.61,133.679C354.132,132.202 354.132,129.806 355.61,128.329C357.087,126.85 359.485,126.85 360.966,128.329ZM358.688,140.094C360.882,139.996 363.046,139.112 364.72,137.438C368.274,133.883 368.274,128.123 364.72,124.57C361.169,121.017 355.407,121.017 351.853,124.57C350.044,126.379 349.157,128.762 349.19,131.134L337.858,142.466C335.485,142.434 333.104,143.32 331.294,145.128C327.741,148.683 327.741,154.444 331.294,157.997C334.849,161.552 340.61,161.552 344.159,157.997C345.835,156.322 346.718,154.159 346.815,151.969L358.688,140.094Z" style="fill:rgb(51,102,69);fill-rule:nonzero;"/>
                    </g>
                </g>
                <g transform="matrix(1.10706,0,0,1.10706,32.5978,-127.807)">
                    <g transform="matrix(1.45527,0,0,1.45527,-109.567,316.723)">
                        <path d="M335.05,154.241C333.573,152.761 333.573,150.367 335.05,148.888C336.526,147.409 338.925,147.409 340.401,148.888C341.88,150.367 341.88,152.761 340.401,154.241C338.925,155.716 336.526,155.716 335.05,154.241ZM360.966,128.329C362.44,129.806 362.44,132.202 360.966,133.679C359.485,135.158 357.087,135.158 355.61,133.679C354.132,132.202 354.132,129.806 355.61,128.329C357.087,126.85 359.485,126.85 360.966,128.329ZM358.688,140.094C360.882,139.996 363.046,139.112 364.72,137.438C368.274,133.883 368.274,128.123 364.72,124.57C361.169,121.017 355.407,121.017 351.853,124.57C350.044,126.379 349.157,128.762 349.19,131.134L337.858,142.466C335.485,142.434 333.104,143.32 331.294,145.128C327.741,148.683 327.741,154.444 331.294,157.997C334.849,161.552 340.61,161.552 344.159,157.997C345.835,156.322 346.718,154.159 346.815,151.969L358.688,140.094Z" style="fill:rgb(51,102,69);fill-rule:nonzero;"/>
                    </g>
                    <g transform="matrix(-2.67329e-16,-1.45527,1.45527,-2.67329e-16,221.144,1028.65)">
                        <path d="M335.05,154.241C333.573,152.761 333.573,150.367 335.05,148.888C336.526,147.409 338.925,147.409 340.401,148.888C341.88,150.367 341.88,152.761 340.401,154.241C338.925,155.716 336.526,155.716 335.05,154.241ZM360.966,128.329C362.44,129.806 362.44,132.202 360.966,133.679C359.485,135.158 357.087,135.158 355.61,133.679C354.132,132.202 354.132,129.806 355.61,128.329C357.087,126.85 359.485,126.85 360.966,128.329ZM358.688,140.094C360.882,139.996 363.046,139.112 364.72,137.438C368.274,133.883 368.274,128.123 364.72,124.57C361.169,121.017 355.407,121.017 351.853,124.57C350.044,126.379 349.157,128.762 349.19,131.134L337.858,142.466C335.485,142.434 333.104,143.32 331.294,145.128C327.741,148.683 327.741,154.444 331.294,157.997C334.849,161.552 340.61,161.552 344.159,157.997C345.835,156.322 346.718,154.159 346.815,151.969L358.688,140.094Z" style="fill:rgb(51,102,69);fill-rule:nonzero;"/>
                    </g>
                </g>
                <g transform="matrix(1.10706,0,0,1.10706,-166.402,-55.8074)">
                    <g transform="matrix(1.45527,0,0,1.45527,-109.567,316.723)">
                        <path d="M335.05,154.241C333.573,152.761 333.573,150.367 335.05,148.888C336.526,147.409 338.925,147.409 340.401,148.888C341.88,150.367 341.88,152.761 340.401,154.241C338.925,155.716 336.526,155.716 335.05,154.241ZM360.966,128.329C362.44,129.806 362.44,132.202 360.966,133.679C359.485,135.158 357.087,135.158 355.61,133.679C354.132,132.202 354.132,129.806 355.61,128.329C357.087,126.85 359.485,126.85 360.966,128.329ZM358.688,140.094C360.882,139.996 363.046,139.112 364.72,137.438C368.274,133.883 368.274,128.123 364.72,124.57C361.169,121.017 355.407,121.017 351.853,124.57C350.044,126.379 349.157,128.762 349.19,131.134L337.858,142.466C335.485,142.434 333.104,143.32 331.294,145.128C327.741,148.683 327.741,154.444 331.294,157.997C334.849,161.552 340.61,161.552 344.159,157.997C345.835,156.322 346.718,154.159 346.815,151.969L358.688,140.094Z" style="fill:rgb(51,102,69);fill-rule:nonzero;"/>
                    </g>
                    <g transform="matrix(-2.67329e-16,-1.45527,1.45527,-2.67329e-16,221.144,1028.65)">
                        <path d="M335.05,154.241C333.573,152.761 333.573,150.367 335.05,148.888C336.526,147.409 338.925,147.409 340.401,148.888C341.88,150.367 341.88,152.761 340.401,154.241C338.925,155.716 336.526,155.716 335.05,154.241ZM360.966,128.329C362.44,129.806 362.44,132.202 360.966,133.679C359.485,135.158 357.087,135.158 355.61,133.679C354.132,132.202 354.132,129.806 355.61,128.329C357.087,126.85 359.485,126.85 360.966,128.329ZM358.688,140.094C360.882,139.996 363.046,139.112 364.72,137.438C368.274,133.883 368.274,128.123 364.72,124.57C361.169,121.017 355.407,121.017 351.853,124.57C350.044,126.379 349.157,128.762 349.19,131.134L337.858,142.466C335.485,142.434 333.104,143.32 331.294,145.128C327.741,148.683 327.741,154.444 331.294,157.997C334.849,161.552 340.61,161.552 344.159,157.997C345.835,156.322 346.718,154.159 346.815,151.969L358.688,140.094Z" style="fill:rgb(51,102,69);fill-rule:nonzero;"/>
                    </g>
                </g>
                <g transform="matrix(1.10706,0,0,1.10706,-34.4021,-55.8074)">
                    <g transform="matrix(1.45527,0,0,1.45527,-109.567,316.723)">
                        <path d="M335.05,154.241C333.573,152.761 333.573,150.367 335.05,148.888C336.526,147.409 338.925,147.409 340.401,148.888C341.88,150.367 341.88,152.761 340.401,154.241C338.925,155.716 336.526,155.716 335.05,154.241ZM360.966,128.329C362.44,129.806 362.44,132.202 360.966,133.679C359.485,135.158 357.087,135.158 355.61,133.679C354.132,132.202 354.132,129.806 355.61,128.329C357.087,126.85 359.485,126.85 360.966,128.329ZM358.688,140.094C360.882,139.996 363.046,139.112 364.72,137.438C368.274,133.883 368.274,128.123 364.72,124.57C361.169,121.017 355.407,121.017 351.853,124.57C350.044,126.379 349.157,128.762 349.19,131.134L337.858,142.466C335.485,142.434 333.104,143.32 331.294,145.128C327.741,148.683 327.741,154.444 331.294,157.997C334.849,161.552 340.61,161.552 344.159,157.997C345.835,156.322 346.718,154.159 346.815,151.969L358.688,140.094Z" style="fill:rgb(51,102,69);fill-rule:nonzero;"/>
                    </g>
                    <g transform="matrix(-2.67329e-16,-1.45527,1.45527,-2.67329e-16,221.144,1028.65)">
                        <path d="M335.05,154.241C333.573,152.761 333.573,150.367 335.05,148.888C336.526,147.409 338.925,147.409 340.401,148.888C341.88,150.367 341.88,152.761 340.401,154.241C338.925,155.716 336.526,155.716 335.05,154.241ZM360.966,128.329C362.44,129.806 362.44,132.202 360.966,133.679C359.485,135.158 357.087,135.158 355.61,133.679C354.132,132.202 354.132,129.806 355.61,128.329C357.087,126.85 359.485,126.85 360.966,128.329ZM358.688,140.094C360.882,139.996 363.046,139.112 364.72,137.438C368.274,133.883 368.274,128.123 364.72,124.57C361.169,121.017 355.407,121.017 351.853,124.57C350.044,126.379 349.157,128.762 349.19,131.134L337.858,142.466C335.485,142.434 333.104,143.32 331.294,145.128C327.741,148.683 327.741,154.444 331.294,157.997C334.849,161.552 340.61,161.552 344.159,157.997C345.835,156.322 346.718,154.159 346.815,151.969L358.688,140.094Z" style="fill:rgb(51,102,69);fill-rule:nonzero;"/>
                    </g>
                </g>
                <g transform="matrix(1.10706,0,0,1.10706,-100.535,17.5303)">
                    <g transform="matrix(1.45527,0,0,1.45527,-109.567,316.723)">
                        <path d="M335.05,154.241C333.573,152.761 333.573,150.367 335.05,148.888C336.526,147.409 338.925,147.409 340.401,148.888C341.88,150.367 341.88,152.761 340.401,154.241C338.925,155.716 336.526,155.716 335.05,154.241ZM360.966,128.329C362.44,129.806 362.44,132.202 360.966,133.679C359.485,135.158 357.087,135.158 355.61,133.679C354.132,132.202 354.132,129.806 355.61,128.329C357.087,126.85 359.485,126.85 360.966,128.329ZM358.688,140.094C360.882,139.996 363.046,139.112 364.72,137.438C368.274,133.883 368.274,128.123 364.72,124.57C361.169,121.017 355.407,121.017 351.853,124.57C350.044,126.379 349.157,128.762 349.19,131.134L337.858,142.466C335.485,142.434 333.104,143.32 331.294,145.128C327.741,148.683 327.741,154.444 331.294,157.997C334.849,161.552 340.61,161.552 344.159,157.997C345.835,156.322 346.718,154.159 346.815,151.969L358.688,140.094Z" style="fill:rgb(51,102,69);fill-rule:nonzero;"/>
                    </g>
                    <g transform="matrix(-2.67329e-16,-1.45527,1.45527,-2.67329e-16,221.144,1028.65)">
                        <path d="M335.05,154.241C333.573,152.761 333.573,150.367 335.05,148.888C336.526,147.409 338.925,147.409 340.401,148.888C341.88,150.367 341.88,152.761 340.401,154.241C338.925,155.716 336.526,155.716 335.05,154.241ZM360.966,128.329C362.44,129.806 362.44,132.202 360.966,133.679C359.485,135.158 357.087,135.158 355.61,133.679C354.132,132.202 354.132,129.806 355.61,128.329C357.087,126.85 359.485,126.85 360.966,128.329ZM358.688,140.094C360.882,139.996 363.046,139.112 364.72,137.438C368.274,133.883 368.274,128.123 364.72,124.57C361.169,121.017 355.407,121.017 351.853,124.57C350.044,126.379 349.157,128.762 349.19,131.134L337.858,142.466C335.485,142.434 333.104,143.32 331.294,145.128C327.741,148.683 327.741,154.444 331.294,157.997C334.849,161.552 340.61,161.552 344.159,157.997C345.835,156.322 346.718,154.159 346.815,151.969L358.688,140.094Z" style="fill:rgb(51,102,69);fill-rule:nonzero;"/>
                    </g>
                </g>
                <g transform="matrix(1.10706,0,0,1.10706,-100.535,-272.202)">
                    <g transform="matrix(1.45527,0,0,1.45527,-109.567,316.723)">
                        <path d="M335.05,154.241C333.573,152.761 333.573,150.367 335.05,148.888C336.526,147.409 338.925,147.409 340.401,148.888C341.88,150.367 341.88,152.761 340.401,154.241C338.925,155.716 336.526,155.716 335.05,154.241ZM360.966,128.329C362.44,129.806 362.44,132.202 360.966,133.679C359.485,135.158 357.087,135.158 355.61,133.679C354.132,132.202 354.132,129.806 355.61,128.329C357.087,126.85 359.485,126.85 360.966,128.329ZM358.688,140.094C360.882,139.996 363.046,139.112 364.72,137.438C368.274,133.883 368.274,128.123 364.72,124.57C361.169,121.017 355.407,121.017 351.853,124.57C350.044,126.379 349.157,128.762 349.19,131.134L337.858,142.466C335.485,142.434 333.104,143.32 331.294,145.128C327.741,148.683 327.741,154.444 331.294,157.997C334.849,161.552 340.61,161.552 344.159,157.997C345.835,156.322 346.718,154.159 346.815,151.969L358.688,140.094Z" style="fill:rgb(51,102,69);fill-rule:nonzero;"/>
                    </g>
                    <g transform="matrix(-2.67329e-16,-1.45527,1.45527,-2.67329e-16,221.144,1028.65)">
                        <path d="M335.05,154.241C333.573,152.761 333.573,150.367 335.05,148.888C336.526,147.409 338.925,147.409 340.401,148.888C341.88,150.367 341.88,152.761 340.401,154.241C338.925,155.716 336.526,155.716 335.05,154.241ZM360.966,128.329C362.44,129.806 362.44,132.202 360.966,133.679C359.485,135.158 357.087,135.158 355.61,133.679C354.132,132.202 354.132,129.806 355.61,128.329C357.087,126.85 359.485,126.85 360.966,128.329ZM358.688,140.094C360.882,139.996 363.046,139.112 364.72,137.438C368.274,133.883 368.274,128.123 364.72,124.57C361.169,121.017 355.407,121.017 351.853,124.57C350.044,126.379 349.157,128.762 349.19,131.134L337.858,142.466C335.485,142.434 333.104,143.32 331.294,145.128C327.741,148.683 327.741,154.444 331.294,157.997C334.849,161.552 340.61,161.552 344.159,157.997C345.835,156.322 346.718,154.159 346.815,151.969L358.688,140.094Z" style="fill:rgb(51,102,69);fill-rule:nonzero;"/>
                    </g>
                </g>
                <g transform="matrix(1.10706,0,0,1.10706,-166.402,-200.47)">
                    <g transform="matrix(1.45527,0,0,1.45527,-109.567,316.723)">
                        <path d="M335.05,154.241C333.573,152.761 333.573,150.367 335.05,148.888C336.526,147.409 338.925,147.409 340.401,148.888C341.88,150.367 341.88,152.761 340.401,154.241C338.925,155.716 336.526,155.716 335.05,154.241ZM360.966,128.329C362.44,129.806 362.44,132.202 360.966,133.679C359.485,135.158 357.087,135.158 355.61,133.679C354.132,132.202 354.132,129.806 355.61,128.329C357.087,126.85 359.485,126.85 360.966,128.329ZM358.688,140.094C360.882,139.996 363.046,139.112 364.72,137.438C368.274,133.883 368.274,128.123 364.72,124.57C361.169,121.017 355.407,121.017 351.853,124.57C350.044,126.379 349.157,128.762 349.19,131.134L337.858,142.466C335.485,142.434 333.104,143.32 331.294,145.128C327.741,148.683 327.741,154.444 331.294,157.997C334.849,161.552 340.61,161.552 344.159,157.997C345.835,156.322 346.718,154.159 346.815,151.969L358.688,140.094Z" style="fill:rgb(51,102,69);fill-rule:nonzero;"/>
                    </g>
                    <g transform="matrix(-2.67329e-16,-1.45527,1.45527,-2.67329e-16,221.144,1028.65)">
                        <path d="M335.05,154.241C333.573,152.761 333.573,150.367 335.05,148.888C336.526,147.409 338.925,147.409 340.401,148.888C341.88,150.367 341.88,152.761 340.401,154.241C338.925,155.716 336.526,155.716 335.05,154.241ZM360.966,128.329C362.44,129.806 362.44,132.202 360.966,133.679C359.485,135.158 357.087,135.158 355.61,133.679C354.132,132.202 354.132,129.806 355.61,128.329C357.087,126.85 359.485,126.85 360.966,128.329ZM358.688,140.094C360.882,139.996 363.046,139.112 364.72,137.438C368.274,133.883 368.274,128.123 364.72,124.57C361.169,121.017 355.407,121.017 351.853,124.57C350.044,126.379 349.157,128.762 349.19,131.134L337.858,142.466C335.485,142.434 333.104,143.32 331.294,145.128C327.741,148.683 327.741,154.444 331.294,157.997C334.849,161.552 340.61,161.552 344.159,157.997C345.835,156.322 346.718,154.159 346.815,151.969L358.688,140.094Z" style="fill:rgb(51,102,69);fill-rule:nonzero;"/>
                    </g>
                </g>
                <g transform="matrix(1.10706,0,0,1.10706,-34.4022,-200.47)">
                    <g transform="matrix(1.45527,0,0,1.45527,-109.567,316.723)">
                        <path d="M335.05,154.241C333.573,152.761 333.573,150.367 335.05,148.888C336.526,147.409 338.925,147.409 340.401,148.888C341.88,150.367 341.88,152.761 340.401,154.241C338.925,155.716 336.526,155.716 335.05,154.241ZM360.966,128.329C362.44,129.806 362.44,132.202 360.966,133.679C359.485,135.158 357.087,135.158 355.61,133.679C354.132,132.202 354.132,129.806 355.61,128.329C357.087,126.85 359.485,126.85 360.966,128.329ZM358.688,140.094C360.882,139.996 363.046,139.112 364.72,137.438C368.274,133.883 368.274,128.123 364.72,124.57C361.169,121.017 355.407,121.017 351.853,124.57C350.044,126.379 349.157,128.762 349.19,131.134L337.858,142.466C335.485,142.434 333.104,143.32 331.294,145.128C327.741,148.683 327.741,154.444 331.294,157.997C334.849,161.552 340.61,161.552 344.159,157.997C345.835,156.322 346.718,154.159 346.815,151.969L358.688,140.094Z" style="fill:rgb(51,102,69);fill-rule:nonzero;"/>
                    </g>
                    <g transform="matrix(-2.67329e-16,-1.45527,1.45527,-2.67329e-16,221.144,1028.65)">
                        <path d="M335.05,154.241C333.573,152.761 333.573,150.367 335.05,148.888C336.526,147.409 338.925,147.409 340.401,148.888C341.88,150.367 341.88,152.761 340.401,154.241C338.925,155.716 336.526,155.716 335.05,154.241ZM360.966,128.329C362.44,129.806 362.44,132.202 360.966,133.679C359.485,135.158 357.087,135.158 355.61,133.679C354.132,132.202 354.132,129.806 355.61,128.329C357.087,126.85 359.485,126.85 360.966,128.329ZM358.688,140.094C360.882,139.996 363.046,139.112 364.72,137.438C368.274,133.883 368.274,128.123 364.72,124.57C361.169,121.017 355.407,121.017 351.853,124.57C350.044,126.379 349.157,128.762 349.19,131.134L337.858,142.466C335.485,142.434 333.104,143.32 331.294,145.128C327.741,148.683 327.741,154.444 331.294,157.997C334.849,161.552 340.61,161.552 344.159,157.997C345.835,156.322 346.718,154.159 346.815,151.969L358.688,140.094Z" style="fill:rgb(51,102,69);fill-rule:nonzero;"/>
                    </g>
                </g>
            </g>
        </g>
        <g transform="matrix(1.08612,0,0,1.08612,533.607,100.833)">
            <g transform="matrix(58.9254,0,0,58.9254,153.79,104.785)">
                <path d="M0.506,-0.592C0.46,-0.643 0.395,-0.669 0.311,-0.669C0.242,-0.669 0.191,-0.656 0.16,-0.63C0.128,-0.603 0.112,-0.568 0.112,-0.523C0.112,-0.5 0.116,-0.482 0.124,-0.467C0.132,-0.452 0.145,-0.439 0.162,-0.428C0.179,-0.417 0.2,-0.408 0.226,-0.401C0.252,-0.394 0.283,-0.386 0.32,-0.378C0.358,-0.37 0.393,-0.361 0.424,-0.352C0.455,-0.342 0.481,-0.33 0.503,-0.315C0.524,-0.3 0.541,-0.282 0.553,-0.261C0.564,-0.24 0.57,-0.213 0.57,-0.182C0.57,-0.151 0.564,-0.123 0.552,-0.1C0.539,-0.077 0.522,-0.057 0.5,-0.042C0.477,-0.026 0.451,-0.014 0.42,-0.006C0.389,0.002 0.354,0.006 0.316,0.006C0.205,0.006 0.112,-0.029 0.035,-0.1L0.062,-0.141C0.092,-0.11 0.129,-0.085 0.172,-0.067C0.215,-0.048 0.264,-0.039 0.318,-0.039C0.38,-0.039 0.429,-0.05 0.464,-0.073C0.499,-0.096 0.516,-0.13 0.516,-0.176C0.516,-0.199 0.511,-0.219 0.502,-0.236C0.493,-0.252 0.479,-0.266 0.461,-0.278C0.442,-0.29 0.419,-0.3 0.391,-0.309C0.363,-0.318 0.33,-0.326 0.293,-0.334C0.255,-0.342 0.222,-0.351 0.193,-0.36C0.164,-0.369 0.139,-0.38 0.12,-0.394C0.1,-0.407 0.085,-0.424 0.075,-0.443C0.065,-0.462 0.06,-0.487 0.06,-0.516C0.06,-0.548 0.066,-0.576 0.079,-0.601C0.091,-0.626 0.108,-0.647 0.13,-0.664C0.152,-0.681 0.178,-0.693 0.209,-0.702C0.24,-0.711 0.274,-0.715 0.311,-0.715C0.357,-0.715 0.398,-0.708 0.434,-0.695C0.47,-0.681 0.503,-0.66 0.532,-0.632L0.506,-0.592Z" style="fill:rgb(102,153,88);fill-rule:nonzero;"/>
            </g>
            <g transform="matrix(58.9254,0,0,58.9254,189.44,104.785)">
                <path d="M0.296,0.01C0.259,0.01 0.226,0.003 0.195,-0.012C0.164,-0.026 0.137,-0.045 0.114,-0.07C0.091,-0.095 0.074,-0.123 0.061,-0.156C0.048,-0.189 0.042,-0.223 0.042,-0.259C0.042,-0.296 0.049,-0.33 0.062,-0.363C0.075,-0.396 0.092,-0.424 0.115,-0.449C0.138,-0.474 0.165,-0.493 0.196,-0.508C0.227,-0.522 0.26,-0.529 0.296,-0.529C0.332,-0.529 0.365,-0.522 0.396,-0.508C0.427,-0.493 0.454,-0.474 0.477,-0.449C0.5,-0.424 0.518,-0.396 0.531,-0.363C0.544,-0.33 0.55,-0.296 0.55,-0.259C0.55,-0.223 0.544,-0.189 0.531,-0.156C0.518,-0.123 0.5,-0.095 0.477,-0.07C0.454,-0.045 0.428,-0.026 0.397,-0.012C0.366,0.003 0.332,0.01 0.296,0.01ZM0.092,-0.257C0.092,-0.226 0.097,-0.198 0.108,-0.171C0.119,-0.143 0.133,-0.12 0.152,-0.1C0.17,-0.08 0.191,-0.064 0.216,-0.053C0.241,-0.041 0.267,-0.035 0.295,-0.035C0.323,-0.035 0.349,-0.041 0.374,-0.053C0.399,-0.064 0.42,-0.08 0.439,-0.101C0.458,-0.122 0.472,-0.146 0.483,-0.173C0.494,-0.2 0.499,-0.229 0.499,-0.26C0.499,-0.291 0.494,-0.32 0.483,-0.347C0.472,-0.374 0.458,-0.397 0.439,-0.418C0.42,-0.438 0.399,-0.454 0.375,-0.466C0.35,-0.478 0.324,-0.484 0.296,-0.484C0.268,-0.484 0.242,-0.478 0.217,-0.466C0.192,-0.454 0.171,-0.438 0.153,-0.417C0.134,-0.396 0.119,-0.372 0.109,-0.345C0.097,-0.317 0.092,-0.288 0.092,-0.257Z" style="fill:rgb(102,153,88);fill-rule:nonzero;"/>
            </g>
            <g transform="matrix(58.9254,0,0,58.9254,224.324,104.785)">
                <path d="M0.042,-0.262C0.042,-0.299 0.048,-0.333 0.061,-0.366C0.074,-0.399 0.091,-0.427 0.114,-0.451C0.137,-0.475 0.164,-0.494 0.195,-0.508C0.226,-0.522 0.261,-0.529 0.298,-0.529C0.345,-0.529 0.387,-0.518 0.423,-0.497C0.459,-0.476 0.486,-0.446 0.504,-0.408L0.455,-0.392C0.44,-0.421 0.418,-0.443 0.39,-0.46C0.361,-0.476 0.33,-0.484 0.296,-0.484C0.267,-0.484 0.241,-0.478 0.216,-0.467C0.191,-0.456 0.17,-0.44 0.152,-0.42C0.133,-0.4 0.119,-0.377 0.108,-0.35C0.097,-0.323 0.092,-0.293 0.092,-0.262C0.092,-0.231 0.097,-0.201 0.109,-0.174C0.119,-0.146 0.134,-0.122 0.153,-0.102C0.171,-0.081 0.193,-0.065 0.218,-0.053C0.243,-0.041 0.269,-0.035 0.297,-0.035C0.315,-0.035 0.333,-0.038 0.351,-0.043C0.368,-0.048 0.385,-0.055 0.4,-0.064C0.415,-0.073 0.428,-0.083 0.439,-0.095C0.45,-0.106 0.457,-0.118 0.461,-0.131L0.51,-0.117C0.503,-0.099 0.493,-0.082 0.48,-0.067C0.466,-0.051 0.45,-0.037 0.431,-0.026C0.412,-0.015 0.392,-0.006 0.369,0.001C0.346,0.007 0.323,0.01 0.299,0.01C0.262,0.01 0.228,0.003 0.197,-0.012C0.166,-0.026 0.138,-0.046 0.116,-0.071C0.093,-0.095 0.075,-0.124 0.062,-0.157C0.049,-0.19 0.042,-0.225 0.042,-0.262Z" style="fill:rgb(102,153,88);fill-rule:nonzero;"/>
            </g>
            <g transform="matrix(58.9254,0,0,58.9254,256.438,104.785)">
                <path d="M0.078,0L0.078,-0.52L0.128,-0.52L0.128,0L0.078,0ZM0.078,-0.638L0.078,-0.73L0.128,-0.73L0.128,-0.638L0.078,-0.638Z" style="fill:rgb(102,153,88);fill-rule:nonzero;"/>
            </g>
            <g transform="matrix(58.9254,0,0,58.9254,268.636,104.785)">
                <path d="M0.206,0.01C0.182,0.01 0.16,0.006 0.139,-0.003C0.118,-0.011 0.1,-0.022 0.085,-0.037C0.069,-0.051 0.057,-0.068 0.048,-0.088C0.039,-0.107 0.035,-0.128 0.035,-0.151C0.035,-0.174 0.04,-0.194 0.051,-0.213C0.062,-0.232 0.077,-0.248 0.096,-0.262C0.115,-0.275 0.137,-0.286 0.164,-0.294C0.191,-0.301 0.22,-0.305 0.252,-0.305C0.28,-0.305 0.308,-0.303 0.337,-0.298C0.365,-0.293 0.39,-0.286 0.413,-0.277L0.413,-0.328C0.413,-0.377 0.399,-0.417 0.371,-0.446C0.343,-0.474 0.305,-0.489 0.257,-0.489C0.232,-0.489 0.205,-0.484 0.177,-0.473C0.148,-0.462 0.119,-0.447 0.09,-0.427L0.071,-0.461C0.138,-0.506 0.201,-0.529 0.261,-0.529C0.324,-0.529 0.373,-0.511 0.409,-0.475C0.445,-0.438 0.463,-0.388 0.463,-0.324L0.463,-0.07C0.463,-0.053 0.47,-0.045 0.485,-0.045L0.485,0C0.482,0.001 0.478,0.001 0.475,0.002C0.471,0.002 0.468,0.002 0.465,0.002C0.452,0.002 0.441,-0.003 0.433,-0.012C0.425,-0.021 0.42,-0.031 0.419,-0.044L0.419,-0.087C0.395,-0.056 0.364,-0.032 0.327,-0.015C0.29,0.002 0.249,0.01 0.206,0.01ZM0.216,-0.03C0.255,-0.03 0.29,-0.037 0.323,-0.052C0.355,-0.067 0.38,-0.086 0.397,-0.11C0.408,-0.124 0.413,-0.137 0.413,-0.15L0.413,-0.242C0.389,-0.251 0.364,-0.258 0.338,-0.263C0.312,-0.268 0.285,-0.27 0.257,-0.27C0.231,-0.27 0.207,-0.267 0.186,-0.262C0.165,-0.256 0.146,-0.248 0.131,-0.238C0.116,-0.228 0.104,-0.216 0.096,-0.202C0.087,-0.187 0.083,-0.171 0.083,-0.154C0.083,-0.137 0.086,-0.12 0.093,-0.105C0.1,-0.09 0.109,-0.077 0.121,-0.066C0.133,-0.055 0.147,-0.046 0.164,-0.04C0.18,-0.033 0.197,-0.03 0.216,-0.03Z" style="fill:rgb(102,153,88);fill-rule:nonzero;"/>
            </g>
            <g transform="matrix(58.9254,0,0,58.9254,300.279,104.785)">
                <path d="M0.082,-0.73L0.133,-0.73L0.133,-0.103C0.133,-0.084 0.138,-0.068 0.15,-0.057C0.161,-0.046 0.176,-0.04 0.195,-0.04C0.202,-0.04 0.211,-0.041 0.222,-0.043C0.232,-0.044 0.241,-0.047 0.25,-0.05L0.26,-0.01C0.249,-0.005 0.235,-0.002 0.218,0.002C0.201,0.005 0.187,0.006 0.175,0.006C0.147,0.006 0.125,-0.003 0.108,-0.02C0.091,-0.037 0.082,-0.059 0.082,-0.088L0.082,-0.73Z" style="fill:rgb(102,153,88);fill-rule:nonzero;"/>
            </g>
            <g transform="matrix(58.9254,0,0,58.9254,134.168,163.71)">
                <path d="M0.044,-0.36C0.044,-0.403 0.051,-0.445 0.067,-0.488C0.082,-0.53 0.103,-0.568 0.132,-0.601C0.161,-0.634 0.196,-0.662 0.238,-0.683C0.279,-0.704 0.327,-0.714 0.38,-0.714C0.443,-0.714 0.497,-0.7 0.542,-0.671C0.587,-0.642 0.62,-0.604 0.642,-0.559L0.6,-0.535C0.587,-0.56 0.572,-0.58 0.556,-0.597C0.539,-0.614 0.52,-0.627 0.501,-0.638C0.481,-0.648 0.46,-0.655 0.439,-0.66C0.418,-0.665 0.397,-0.667 0.376,-0.667C0.331,-0.667 0.291,-0.658 0.256,-0.64C0.221,-0.621 0.192,-0.597 0.168,-0.568C0.144,-0.539 0.126,-0.506 0.114,-0.469C0.101,-0.432 0.095,-0.394 0.095,-0.357C0.095,-0.315 0.102,-0.275 0.117,-0.237C0.132,-0.199 0.152,-0.166 0.177,-0.137C0.202,-0.108 0.232,-0.084 0.267,-0.067C0.302,-0.05 0.339,-0.041 0.379,-0.041C0.4,-0.041 0.422,-0.044 0.445,-0.049C0.468,-0.054 0.489,-0.063 0.51,-0.074C0.531,-0.085 0.55,-0.1 0.568,-0.118C0.586,-0.135 0.601,-0.156 0.613,-0.18L0.657,-0.159C0.645,-0.132 0.629,-0.109 0.608,-0.088C0.587,-0.067 0.564,-0.05 0.539,-0.036C0.514,-0.022 0.487,-0.012 0.459,-0.005C0.43,0.003 0.402,0.006 0.375,0.006C0.326,0.006 0.282,-0.005 0.242,-0.026C0.201,-0.047 0.166,-0.075 0.137,-0.11C0.108,-0.144 0.085,-0.183 0.069,-0.227C0.052,-0.27 0.044,-0.315 0.044,-0.36Z" style="fill:rgb(102,153,88);fill-rule:nonzero;"/>
            </g>
            <g transform="matrix(58.9254,0,0,58.9254,174.826,163.71)">
                <path d="M0.113,0.176C0.116,0.177 0.121,0.177 0.128,0.177C0.135,0.177 0.141,0.177 0.147,0.176C0.152,0.175 0.158,0.174 0.163,0.171C0.167,0.169 0.171,0.166 0.174,0.163C0.177,0.159 0.182,0.151 0.188,0.14C0.194,0.129 0.202,0.112 0.211,0.09C0.22,0.068 0.233,0.038 0.249,0L0.017,-0.52L0.069,-0.52L0.276,-0.049L0.469,-0.52L0.518,-0.52L0.233,0.164C0.226,0.183 0.214,0.197 0.198,0.208C0.181,0.218 0.159,0.223 0.131,0.223L0.123,0.223C0.12,0.223 0.116,0.223 0.113,0.222L0.113,0.176Z" style="fill:rgb(102,153,88);fill-rule:nonzero;"/>
            </g>
            <g transform="matrix(58.9254,0,0,58.9254,205.585,163.71)">
                <path d="M0.042,-0.262C0.042,-0.299 0.048,-0.333 0.061,-0.366C0.074,-0.399 0.091,-0.427 0.114,-0.451C0.137,-0.475 0.164,-0.494 0.195,-0.508C0.226,-0.522 0.261,-0.529 0.298,-0.529C0.345,-0.529 0.387,-0.518 0.423,-0.497C0.459,-0.476 0.486,-0.446 0.504,-0.408L0.455,-0.392C0.44,-0.421 0.418,-0.443 0.39,-0.46C0.361,-0.476 0.33,-0.484 0.296,-0.484C0.267,-0.484 0.241,-0.478 0.216,-0.467C0.191,-0.456 0.17,-0.44 0.152,-0.42C0.133,-0.4 0.119,-0.377 0.108,-0.35C0.097,-0.323 0.092,-0.293 0.092,-0.262C0.092,-0.231 0.097,-0.201 0.109,-0.174C0.119,-0.146 0.134,-0.122 0.153,-0.102C0.171,-0.081 0.193,-0.065 0.218,-0.053C0.243,-0.041 0.269,-0.035 0.297,-0.035C0.315,-0.035 0.333,-0.038 0.351,-0.043C0.368,-0.048 0.385,-0.055 0.4,-0.064C0.415,-0.073 0.428,-0.083 0.439,-0.095C0.45,-0.106 0.457,-0.118 0.461,-0.131L0.51,-0.117C0.503,-0.099 0.493,-0.082 0.48,-0.067C0.466,-0.051 0.45,-0.037 0.431,-0.026C0.412,-0.015 0.392,-0.006 0.369,0.001C0.346,0.007 0.323,0.01 0.299,0.01C0.262,0.01 0.228,0.003 0.197,-0.012C0.166,-0.026 0.138,-0.046 0.116,-0.071C0.093,-0.095 0.075,-0.124 0.062,-0.157C0.049,-0.19 0.042,-0.225 0.042,-0.262Z" style="fill:rgb(102,153,88);fill-rule:nonzero;"/>
            </g>
            <g transform="matrix(58.9254,0,0,58.9254,237.7,163.71)">
                <path d="M0.082,-0.73L0.133,-0.73L0.133,-0.103C0.133,-0.084 0.138,-0.068 0.15,-0.057C0.161,-0.046 0.176,-0.04 0.195,-0.04C0.202,-0.04 0.211,-0.041 0.222,-0.043C0.232,-0.044 0.241,-0.047 0.25,-0.05L0.26,-0.01C0.249,-0.005 0.235,-0.002 0.218,0.002C0.201,0.005 0.187,0.006 0.175,0.006C0.147,0.006 0.125,-0.003 0.108,-0.02C0.091,-0.037 0.082,-0.059 0.082,-0.088L0.082,-0.73Z" style="fill:rgb(102,153,88);fill-rule:nonzero;"/>
            </g>
            <g transform="matrix(58.9254,0,0,58.9254,252.961,163.71)">
                <path d="M0.078,0L0.078,-0.52L0.128,-0.52L0.128,0L0.078,0ZM0.078,-0.638L0.078,-0.73L0.128,-0.73L0.128,-0.638L0.078,-0.638Z" style="fill:rgb(102,153,88);fill-rule:nonzero;"/>
            </g>
            <g transform="matrix(58.9254,0,0,58.9254,265.159,163.71)">
                <path d="M0.503,0L0.453,0L0.453,-0.29C0.453,-0.357 0.444,-0.406 0.425,-0.437C0.405,-0.468 0.375,-0.483 0.334,-0.483C0.312,-0.483 0.29,-0.479 0.269,-0.471C0.247,-0.463 0.227,-0.452 0.208,-0.437C0.189,-0.422 0.173,-0.405 0.159,-0.386C0.145,-0.366 0.135,-0.345 0.128,-0.322L0.128,0L0.078,0L0.078,-0.52L0.125,-0.52L0.125,-0.396C0.136,-0.416 0.149,-0.434 0.165,-0.451C0.18,-0.467 0.198,-0.481 0.218,-0.493C0.237,-0.504 0.258,-0.513 0.28,-0.52C0.302,-0.526 0.325,-0.529 0.348,-0.529C0.405,-0.529 0.445,-0.509 0.468,-0.47C0.491,-0.43 0.503,-0.373 0.503,-0.299L0.503,0Z" style="fill:rgb(102,153,88);fill-rule:nonzero;"/>
            </g>
            <g transform="matrix(58.9254,0,0,58.9254,299.1,163.71)">
                <path d="M0.288,0.008C0.252,0.008 0.219,0 0.189,-0.015C0.159,-0.029 0.133,-0.049 0.112,-0.075C0.09,-0.099 0.073,-0.128 0.061,-0.16C0.048,-0.192 0.042,-0.225 0.042,-0.259C0.042,-0.294 0.048,-0.328 0.06,-0.361C0.071,-0.394 0.088,-0.423 0.109,-0.448C0.13,-0.472 0.156,-0.492 0.186,-0.507C0.215,-0.522 0.248,-0.529 0.284,-0.529C0.329,-0.529 0.369,-0.517 0.403,-0.494C0.436,-0.47 0.465,-0.441 0.488,-0.407L0.488,-0.52L0.534,-0.52L0.534,0.01C0.534,0.045 0.527,0.076 0.514,0.103C0.501,0.13 0.483,0.152 0.461,0.17C0.438,0.187 0.412,0.201 0.383,0.21C0.353,0.219 0.322,0.223 0.289,0.223C0.259,0.223 0.232,0.22 0.208,0.215C0.184,0.209 0.163,0.201 0.145,0.191C0.126,0.18 0.11,0.168 0.096,0.153C0.081,0.137 0.069,0.121 0.058,0.103L0.092,0.08C0.113,0.115 0.141,0.141 0.176,0.158C0.211,0.174 0.249,0.182 0.289,0.182C0.316,0.182 0.341,0.178 0.365,0.171C0.388,0.164 0.409,0.153 0.427,0.139C0.444,0.124 0.458,0.106 0.469,0.085C0.479,0.064 0.484,0.039 0.484,0.01L0.484,-0.104C0.463,-0.07 0.434,-0.043 0.399,-0.023C0.364,-0.002 0.327,0.008 0.288,0.008ZM0.3,-0.035C0.322,-0.035 0.343,-0.039 0.365,-0.048C0.386,-0.056 0.405,-0.067 0.422,-0.08C0.439,-0.093 0.452,-0.108 0.464,-0.125C0.474,-0.142 0.481,-0.158 0.484,-0.175L0.484,-0.346C0.476,-0.366 0.465,-0.385 0.452,-0.402C0.439,-0.419 0.424,-0.433 0.407,-0.445C0.39,-0.457 0.371,-0.467 0.352,-0.474C0.332,-0.481 0.312,-0.484 0.292,-0.484C0.261,-0.484 0.233,-0.477 0.208,-0.464C0.183,-0.451 0.163,-0.433 0.146,-0.412C0.128,-0.391 0.115,-0.367 0.107,-0.34C0.097,-0.313 0.093,-0.285 0.093,-0.258C0.093,-0.228 0.098,-0.2 0.109,-0.173C0.12,-0.146 0.134,-0.123 0.153,-0.102C0.172,-0.081 0.194,-0.065 0.219,-0.053C0.244,-0.041 0.271,-0.035 0.3,-0.035Z" style="fill:rgb(102,153,88);fill-rule:nonzero;"/>
            </g>
        </g>
    </g>
</svg>
