<?xml version="1.0" encoding="UTF-8" standalone="no"?>
<!DOCTYPE svg PUBLIC "-//W3C//DTD SVG 1.1//EN" "http://www.w3.org/Graphics/SVG/1.1/DTD/svg11.dtd">
<svg width="100%" height="100%" viewBox="0 0 439 74" version="1.1" xmlns="http://www.w3.org/2000/svg" xmlns:xlink="http://www.w3.org/1999/xlink" xml:space="preserve" xmlns:serif="http://www.serif.com/" style="fill-rule:evenodd;clip-rule:evenodd;stroke-linejoin:round;stroke-miterlimit:2;">
    <g transform="matrix(1,0,0,1,-100,-97)">
        <text x="101px" y="122.313px" style="font-family:'OpenSans', 'Open Sans', sans-serif;font-size:32px;fill:rgb(242,232,210);">Pedalear en grupo es más</text>
        <text x="101px" y="158.313px" style="font-family:'OpenSans', 'Open Sans', sans-serif;font-size:32px;fill:rgb(242,232,210);">segur<tspan x="183.813px 203.141px " y="158.313px 158.313px ">o </tspan>y más divertido.</text>
    </g>
</svg>
