<?xml version="1.0" encoding="UTF-8" standalone="no"?>
<!DOCTYPE svg PUBLIC "-//W3C//DTD SVG 1.1//EN" "http://www.w3.org/Graphics/SVG/1.1/DTD/svg11.dtd">
<svg width="100%" height="100%" viewBox="0 0 82 113" version="1.1" xmlns="http://www.w3.org/2000/svg" xmlns:xlink="http://www.w3.org/1999/xlink" xml:space="preserve" xmlns:serif="http://www.serif.com/" style="fill-rule:evenodd;clip-rule:evenodd;stroke-linejoin:round;stroke-miterlimit:2;">
    <g id="Ubicacion-Flock" serif:id="Ubicacion Flock" transform="matrix(1.5594,0,0,1.5594,-3363.05,-466.658)">
        <g transform="matrix(1.79791,0,0,1.79791,2109.94,-285.039)">
            <path d="M54.954,339.479C54.954,347.482 48.465,353.971 40.461,353.971C32.458,353.971 25.967,347.482 25.967,339.479C25.967,331.474 32.458,324.984 40.461,324.984C48.465,324.984 54.954,331.474 54.954,339.479Z" style="fill:rgb(51,102,69);fill-rule:nonzero;"/>
        </g>
        <g transform="matrix(1.79791,0,0,1.79791,2109.94,-285.039)">
            <path d="M40.461,365.082L28.936,348.237L51.985,348.237L40.461,365.082Z" style="fill:rgb(51,102,69);fill-rule:nonzero;"/>
        </g>
        <g transform="matrix(1.79791,0,0,1.79791,2109.94,-285.039)">
            <path d="M49.668,339.479C49.668,344.563 45.545,348.686 40.461,348.686C35.376,348.686 31.254,344.563 31.254,339.479C31.254,334.393 35.376,330.271 40.461,330.271C45.545,330.271 49.668,334.393 49.668,339.479Z" style="fill:white;fill-rule:nonzero;"/>
        </g>
        <g id="bicicleta" transform="matrix(0.133339,0,0,0.133339,2170.23,311.849)">
            <path id="path2578" d="M154.617,85.61C149.832,85.61 145.285,86.593 141.154,88.358L129.528,68.436L138.289,53.42C139.48,51.371 138.788,48.741 136.743,47.543C135.844,47.021 134.842,46.076 133.894,46.231L133.149,45.354L115.963,45.354C113.594,45.354 111.67,48.654 111.67,51.024C111.67,53.397 113.594,56.693 115.963,56.693L127.102,56.693L122.086,64.252L71.902,64.252L81.925,45.354L85.897,45.354C88.267,45.354 90.191,43.948 90.191,41.575C90.191,39.201 88.267,37.795 85.897,37.795L64.418,37.795C62.052,37.795 60.125,39.201 60.125,41.575C60.125,43.948 62.049,45.354 64.418,45.354L71.974,45.354L47.826,87.553C43.691,85.788 39.137,85.209 34.356,85.209C15.383,85.209 0,100.796 0,119.769C0,138.746 15.383,154.227 34.36,154.227C53.337,154.227 68.719,138.894 68.719,119.917C68.719,108.805 63.42,98.974 55.226,92.689L64.422,76.944L90.78,122.132L90.883,122.275L90.996,122.445L91.083,122.574L91.423,122.967L91.465,123.016L91.582,123.122L91.703,123.22L92.035,123.485L92.175,123.575L92.285,123.647L92.33,123.674L92.345,123.689L92.708,123.866L92.75,123.885L92.837,123.931L92.867,123.938L93.143,124.037L93.4,124.12L93.453,124.135L93.547,124.15L93.713,124.184L94.484,124.263L94.488,124.498L94.503,124.721L120.548,124.721C122.672,139.839 137.095,154.56 154.613,154.56C173.59,154.56 188.973,139.06 188.973,120.083C188.976,101.11 173.594,85.61 154.617,85.61ZM60.129,119.97C60.129,134.207 48.593,145.742 34.36,145.742C20.126,145.742 8.591,134.203 8.591,119.97C8.591,105.74 20.126,94.205 34.36,94.205C37.561,94.205 40.615,94.813 43.442,95.883L30.648,117.812C29.454,119.856 30.149,122.487 32.198,123.689C32.878,124.082 33.623,124.271 34.356,124.271C35.834,124.271 37.27,123.507 38.071,122.143L50.869,100.199C56.523,104.927 60.129,112.029 60.129,119.97ZM94.488,110.529L71.902,71.811L117.078,71.811L94.488,110.529ZM124.551,77.703L133.75,93.834C126.637,99.292 121.723,105.827 120.552,117.165L101.964,117.165L124.551,77.703ZM138.108,101.684L147.145,117.165L129.237,117.165C130.273,109.606 133.493,105.543 138.108,101.684ZM154.617,145.977C141.853,145.977 131.278,136.063 129.233,124.724L154.605,124.724L154.624,124.501L155.391,124.301L155.565,124.214L156.28,123.965L156.359,123.904L156.786,123.685L156.888,123.606L157.27,123.33L157.565,123.08L157.852,122.767L158.109,122.445L158.324,122.098L158.521,121.739L158.668,121.346L158.786,120.952L158.85,120.559L158.899,120.094L158.91,119.962L158.891,119.72L158.838,119.252L158.751,118.851L158.627,118.458L158.43,118.031L158.328,117.808L145.534,95.879C148.369,94.809 151.419,94.201 154.617,94.201C168.854,94.201 180.389,105.853 180.389,120.083C180.393,134.321 168.854,145.977 154.617,145.977Z" style="fill:rgb(51,102,69);fill-rule:nonzero;"/>
        </g>
    </g>
</svg>
